{
    "KPlugin": {
        "Authors": [
            {
                "Email": "jgrulich@redhat.com",
                "Name": "Jan Grulich",
                "Name[ar]": "Jan Grulich",
                "Name[az]": "Jan Grulich",
                "Name[bg]": "Jan Grulich",
                "Name[ca@valencia]": "Jan Grulich",
                "Name[ca]": "Jan Grulich",
                "Name[cs]": "Jan Grulich",
                "Name[en_GB]": "Jan Grulich",
                "Name[es]": "Jan Grulich",
                "Name[eu]": "Jan Grulich",
                "Name[fi]": "Jan Grulich",
                "Name[fr]": "Jan Grulich",
                "Name[hu]": "Jan Grulich",
                "Name[ia]": "Jan Grulich",
                "Name[is]": "Jan Grulich",
                "Name[it]": "Jan Grulich",
                "Name[ka]": "Jan Grulich",
                "Name[ko]": "Jan Grulich",
                "Name[nl]": "Jan Grulich",
                "Name[nn]": "Jan Gruhlich",
                "Name[pl]": "Jan Grulich",
                "Name[pt]": "Jan Grulich",
                "Name[pt_BR]": "Jan Grulich",
                "Name[ro]": "Jan Grulich",
                "Name[ru]": "Jan Grulich",
                "Name[sk]": "Jan Grulich",
                "Name[sl]": "Jan Grulich",
                "Name[sv]": "Jan Grulich",
                "Name[ta]": "ஜான் குரூலிச்",
                "Name[tr]": "Jan Grulich",
                "Name[uk]": "Jan Grulich",
                "Name[x-test]": "xxJan Grulichxx",
                "Name[zh_CN]": "Jan Grulich",
                "Name[zh_TW]": "Jan Grulich"
            }
        ],
        "Category": "VPNService",
        "Description": "Fortinet SSLVPN virtual private networks",
        "Description[ar]": "الشبكات الخاصة الافتراضية فورت نت SSLVPN",
        "Description[az]": "Fortinet SSLVPN virtual gizli şəbəkələri",
        "Description[bg]": "Fortinet SSLVPN виртуални частни мрежи",
        "Description[ca@valencia]": "Xarxes privades virtuals Fortinet SSLVPN",
        "Description[ca]": "Xarxes privades virtuals Fortinet SSLVPN",
        "Description[cs]": "Fortinet SSLVPN virtual private networks",
        "Description[en_GB]": "Fortinet SSLVPN virtual private networks",
        "Description[es]": "Redes privadas virtuales SSLVPN de Fortinet",
        "Description[eu]": "Fortinet SSLVPN alegiazko sare pribatuak",
        "Description[fi]": "Fortinet SSLVPN -virtuaaliyksityisverkot",
        "Description[fr]": "Réseaux privés virtuels « SSLVPN Fortinet »",
        "Description[hu]": "Fortinet SSLVPN virtuális magánhálózat",
        "Description[ia]": "Fortinet SSLVPN retes virtual private",
        "Description[is]": "Fortinet SSLVPN virtual private networks",
        "Description[it]": "Reti private virtuali Fortinet SSLVPN",
        "Description[ka]": "Fortinet SSLVPN ვირტუალური კერძო ქსელები",
        "Description[ko]": "Fortinet SSLVPN 가상 개인 네트워크",
        "Description[nl]": "Fortinet SSLVPN virtuele private netwerken",
        "Description[nn]": "Fortinet SSLVPN virtuelle private nettverk",
        "Description[pl]": "Fortinet SSLVPN wirtualne prywatne sieci",
        "Description[pt]": "Redes privadas virtuais do SSLVPN do Fortinet",
        "Description[pt_BR]": "Redes privadas virtuais Fortinet SSLVPN",
        "Description[ro]": "Rețele private virtuale Fortinet SSLVPN",
        "Description[ru]": "Виртуальные частные сети Fortinet SSLVPN",
        "Description[sk]": "Virtuálne súkromné siete Fortinet SSLVPN",
        "Description[sl]": "Navidezna zasebna omrežja Fortinet SSLVPN",
        "Description[sv]": "Fortinet SSLVPN virtuella privata nätverk",
        "Description[tr]": "Fortinet SSLVPN sanal özel ağları",
        "Description[uk]": "Віртуальні приватні мережі SSLVPN Fortinet",
        "Description[x-test]": "xxFortinet SSLVPN virtual private networksxx",
        "Description[zh_CN]": "Fortinet SSLVPN 虛拟私人网络",
        "Description[zh_TW]": "Fortinet SSLVPN 虛擬私人網路",
        "EnabledByDefault": false,
        "Icon": "",
        "Id": "plasmanetworkmanagement_fortisslvpnui",
        "License": "GPL",
        "Name": "Fortinet SSLVPN (fortisslvpn)",
        "Name[ar]": "فورت نت SSLVPN (fortisslvpn)",
        "Name[ast]": "SSLVPN de Fortinet (fortisslvpn)",
        "Name[az]": "Fortinet SSLVPN (fortisslvpn)",
        "Name[bg]": "Fortinet SSLVPN (fortisslvpn)",
        "Name[ca@valencia]": "Fortinet SSLVPN (fortisslvpn)",
        "Name[ca]": "Fortinet SSLVPN (fortisslvpn)",
        "Name[cs]": "Fortinet SSLVPN (fortisslvpn)",
        "Name[da]": "Fortinet SSLVPN (fortisslvpn)",
        "Name[de]": "Fortinet SSLVPN (fortisslvpn)",
        "Name[el]": "Fortinet SSLVPN (fortisslvpn)",
        "Name[en_GB]": "Fortinet SSLVPN (fortisslvpn)",
        "Name[es]": "SSLVPN de Fortinet (fortisslvpn)",
        "Name[et]": "Fortinet SSLVPN (fortisslvpn)",
        "Name[eu]": "Fortinet SSLVPN (fortisslvpn)",
        "Name[fi]": "Fortinet SSLVPN (fortisslvpn)",
        "Name[fr]": "SSLVPN Fortinet (fortisslvpn)",
        "Name[gl]": "VPN SSL de Fortinet (fortisslvpn)",
        "Name[hu]": "Fortinet SSLVPN (fortisslvpn)",
        "Name[ia]": "Fortinet SSLVPN (fortisslvpn)",
        "Name[id]": "Fortinet SSLVPN (fortisslvpn)",
        "Name[is]": "Fortinet SSLVPN (fortisslvpn)",
        "Name[it]": "Fortinet SSLVPN (fortisslvpn)",
        "Name[ka]": "Fortinet SSLVPN (fortisslvpn)",
        "Name[ko]": "Fortinet SSLVPN (fortisslvpn)",
        "Name[lt]": "Fortinet SSLVPN (fortisslvpn)",
        "Name[ml]": "Fortinet SSLVPN (fortisslvpn)",
        "Name[nl]": "Fortinet SSLVPN (fortisslvpn)",
        "Name[nn]": "Fortinet SSLVPN (fortisslvpn)",
        "Name[pa]": "ਫੋਰਟੀਨੈੱਟ SSLVPN (fortisslvpn)",
        "Name[pl]": "Fortinet SSLVPN (fortisslvpn)",
        "Name[pt]": "SSLVPN do Fortinet (fortisslvpn)",
        "Name[pt_BR]": "Fortinet SSLVPN (fortisslvpn)",
        "Name[ro]": "Fortinet SSLVPN (fortisslvpn)",
        "Name[ru]": "Fortinet SSLVPN (fortisslvpn)",
        "Name[sk]": "Fortinet SSLVPN (fortisslvpn)",
        "Name[sl]": "Fortinet SSLVPN (fortisslvpn)",
        "Name[sr@ijekavian]": "Фортинетов ССЛ ВПН",
        "Name[sr@ijekavianlatin]": "Fortinetov SSL VPN",
        "Name[sr@latin]": "Fortinetov SSL VPN",
        "Name[sr]": "Фортинетов ССЛ ВПН",
        "Name[sv]": "Fortinet SSLVPN (fortisslvpn)",
        "Name[tr]": "Fortinet SSLVPN (fortisslvpn)",
        "Name[uk]": "Fortinet SSLVPN (fortisslvpn)",
        "Name[x-test]": "xxFortinet SSLVPN (fortisslvpn)xx",
        "Name[zh_CN]": "Fortinet SSLVPN (fortisslvpn)",
        "Name[zh_TW]": "Fortinet SSLVPN (fortisslvpn)",
        "Version": "0.1",
        "Website": ""
    },
    "X-NetworkManager-Services": "org.freedesktop.NetworkManager.fortisslvpn"
}
